<html lang="en">
<head>
    <meta charset="UTF-8">
    <meta name="viewport" content="width=device-width, initial-scale=1.0">
    <title>Contact us</title>
</head>
<body>
    <header>
        <h1>BlueBusInc.</h1>
    </header>
    <div>
        <fieldset>
            <legend>Contact Us</legend>
        <form action="">
            <div>
                <label for="name">Name:</label>
                <input type="text" name="name" id="name">
                <label for="email">Email:</label>
                <input type="email" name="email" id="email">
                <label for="massage">Messege:</label>
                <textarea name="massage" id="massage" cols="30" rows="10"></textarea>
            </div>
            <input type="submit" value="Submit">
        </fieldset>
        </form>
        <a href="index.html"><span>Go back</span></a>
    </div>
</body>
</html>